simulation/qsim/trabalho-final.msim.vcd
$comment
	File created using the following command:
		vcd file trabalho-final.msim.vcd -direction
$end
$date
	Tue Jul 04 13:28:23 2017
$end
$version
	ModelSim Version 10.1d
$end
$timescale
	1ps
$end
$scope module velocidade2_vlg_vec_tst $end
$var reg 1 ! CLK $end
$var reg 1 " PIN0 $end
$var reg 1 # PIN1 $end
$var reg 1 $ PIN2 $end
$var wire 1 % c0 $end
$var wire 1 & c1 $end
$var wire 1 ' c2 $end
$var wire 1 ( c3 $end
$var wire 1 ) c4 $end
$var wire 1 * c5 $end
$var wire 1 + c6 $end
$var wire 1 , c7 $end
$var wire 1 - clkout $end
$var wire 1 . sampler $end
$scope module i1 $end
$var wire 1 / gnd $end
$var wire 1 0 vcc $end
$var wire 1 1 unknown $end
$var tri1 1 2 devclrn $end
$var tri1 1 3 devpor $end
$var tri1 1 4 devoe $end
$var wire 1 5 inst20|LPM_MUX_component|auto_generated|_~0_combout $end
$var wire 1 6 CLK~combout $end
$var wire 1 7 inst9~0_combout $end
$var wire 1 8 inst9~regout $end
$var wire 1 9 PIN1~combout $end
$var wire 1 : inst8~0_combout $end
$var wire 1 ; inst8~regout $end
$var wire 1 < inst20|LPM_MUX_component|auto_generated|_~1_combout $end
$var wire 1 = inst5~0_combout $end
$var wire 1 > inst5~regout $end
$var wire 1 ? inst4~0_combout $end
$var wire 1 @ inst4~regout $end
$var wire 1 A PIN0~combout $end
$var wire 1 B inst20|LPM_MUX_component|auto_generated|_~2_combout $end
$var wire 1 C inst20|LPM_MUX_component|auto_generated|_~3_combout $end
$var wire 1 D PIN2~combout $end
$var wire 1 E inst20|LPM_MUX_component|auto_generated|_~4_combout $end
$var wire 1 F inst7~0_combout $end
$var wire 1 G inst7~regout $end
$var wire 1 H inst~0_combout $end
$var wire 1 I inst~regout $end
$var wire 1 J inst3~0_combout $end
$var wire 1 K inst3~regout $end
$var wire 1 L inst6~0_combout $end
$var wire 1 M inst6~regout $end
$upscope $end
$upscope $end
$enddefinitions $end
#0
$dumpvars
0!
0"
0#
0$
0%
0&
0'
0(
0)
0*
0+
0,
0-
x.
0/
10
x1
12
13
14
05
06
17
08
09
1:
0;
0<
1=
0>
1?
0@
0A
0B
0C
0D
0E
1F
0G
1H
0I
1J
0K
1L
0M
$end
#10000
1!
16
0.
18
07
1%
1;
0:
1&
1G
0F
1'
1I
0H
15
1(
1<
1K
0J
1)
1@
0?
1*
1>
0=
1+
1M
0L
1B
1,
1C
1E
1-
#20000
0!
06
1.
#30000
1!
16
0.
08
17
0%
#40000
0!
06
1.
#50000
1!
16
0.
18
07
1%
0;
1:
0&
#60000
0!
06
1.
#70000
1!
16
0.
08
17
0%
#80000
1"
0!
1A
06
1.
0B
#90000
1!
16
0.
18
07
1%
1;
0:
1&
0G
1F
05
0'
0<
#100000
0!
06
1.
#110000
1!
16
0.
08
17
0%
#120000
0!
06
1.
#130000
1!
16
0.
18
07
1%
0;
1:
0&
#140000
0!
06
1.
#150000
1!
16
0.
08
17
0%
#160000
1#
0"
0!
19
0A
06
1.
1B
0C
1C
0E
1E
0-
1-
#170000
1!
16
0.
18
07
1%
1;
1<
0:
1&
1G
0F
1'
0I
1H
0(
#180000
0!
06
1.
#190000
1!
16
0.
08
17
0%
#200000
0!
06
1.
#210000
1!
16
0.
18
07
1%
0;
0<
1:
0&
#220000
0!
06
1.
#230000
1!
16
0.
08
17
0%
#240000
1"
0!
1A
06
1.
15
#250000
1!
16
0.
18
1<
07
1%
1;
0:
1&
0G
1F
0'
#260000
0!
06
1.
#270000
1!
16
0.
08
0<
17
0%
#280000
0!
06
1.
#290000
1!
16
0.
18
1<
07
1%
0;
1:
0&
#300000
0!
06
1.
#310000
1!
16
0.
08
0<
17
0%
#320000
1$
0#
0"
0!
1D
09
0A
06
1.
0E
1<
05
1E
0<
0-
0E
1-
0-
#330000
1!
16
0.
18
07
1%
1;
0:
1&
1G
0F
1'
1I
0H
15
1(
1<
1E
1-
0K
1J
0)
#340000
0!
06
1.
#350000
1!
16
0.
08
17
0%
#360000
0!
06
1.
#370000
1!
16
0.
18
07
1%
0;
1:
0&
#380000
0!
06
1.
#390000
1!
16
0.
08
17
0%
#400000
1"
0!
1A
06
1.
0C
0B
1C
#410000
1!
16
0.
18
07
1%
1;
0:
1&
0G
1F
05
0'
0<
0E
0-
#420000
0!
06
1.
#430000
1!
16
0.
08
17
0%
#440000
0!
06
1.
#450000
1!
16
0.
18
07
1%
0;
1:
0&
#460000
0!
06
1.
#470000
1!
16
0.
08
17
0%
#480000
1#
0"
0!
19
0A
06
1.
1B
0C
1C
#490000
1!
16
0.
18
07
1%
1;
1<
0:
1&
1E
1-
1G
0F
1'
0I
1H
0(
#500000
0!
06
1.
#510000
1!
16
0.
08
17
0%
#520000
0!
06
1.
#530000
1!
16
0.
18
07
1%
0;
0<
1:
0&
0E
0-
#540000
0!
06
1.
#550000
1!
16
0.
08
17
0%
#560000
1"
0!
1A
06
1.
0C
15
#570000
1!
16
0.
18
1<
07
1%
1E
1-
1;
0:
1&
0G
1F
0'
#580000
0!
06
1.
#590000
1!
16
0.
08
0<
17
0%
0E
0-
#600000
0!
06
1.
#610000
1!
16
0.
18
1<
07
1%
1E
1-
0;
1:
0&
#620000
0!
06
1.
#630000
1!
16
0.
08
0<
17
0%
0E
0-
#640000
0$
0#
0"
0!
0D
09
0A
06
1.
1<
05
1C
1E
0<
1-
#650000
1!
16
0.
18
07
1%
1;
0:
1&
1G
0F
1'
1I
0H
15
1(
1<
1K
0J
1)
0@
1?
0*
#660000
0!
06
1.
#670000
1!
16
0.
08
17
0%
#680000
0!
06
1.
#690000
1!
16
0.
18
07
1%
0;
1:
0&
#700000
0!
06
1.
#710000
1!
16
0.
08
17
0%
#720000
1"
0!
1A
06
1.
0B
#730000
1!
16
0.
18
07
1%
1;
0:
1&
0G
1F
05
0'
0<
#740000
0!
06
1.
#750000
1!
16
0.
08
17
0%
#760000
0!
06
1.
#770000
1!
16
0.
18
07
1%
0;
1:
0&
#780000
0!
06
1.
#790000
1!
16
0.
08
17
0%
#800000
1#
0"
0!
19
0A
06
1.
0C
0E
0-
#810000
1!
16
0.
18
07
1%
1;
1<
0:
1&
1G
0F
1'
0I
1H
0(
#820000
0!
06
1.
#830000
1!
16
0.
08
17
0%
#840000
0!
06
1.
#850000
1!
16
0.
18
07
1%
0;
0<
1:
0&
#860000
0!
06
1.
#870000
1!
16
0.
08
17
0%
#880000
1"
0!
1A
06
1.
1C
1B
15
1E
1-
#890000
1!
16
0.
18
1<
07
1%
1;
0:
1&
0G
1F
0'
#900000
0!
06
1.
#910000
1!
16
0.
08
0<
17
0%
#920000
0!
06
1.
#930000
1!
16
0.
18
1<
07
1%
0;
1:
0&
#940000
0!
06
1.
#950000
1!
16
0.
08
0<
17
0%
#960000
1$
0#
0"
0!
1D
09
0A
06
1.
0E
1<
05
1E
0<
0-
0E
1-
0-
#970000
1!
16
0.
18
07
1%
1;
0:
1&
1G
0F
1'
1I
0H
15
1(
1<
1E
1-
0K
1J
0)
#980000
0!
06
1.
#990000
1!
16
0.
08
17
0%
